CONTROL 91d56ab30c4009204b0303828af8992a28909bc6
portfile.cmake 9e2ac613e020d8918eeedfdbb4d9d32cdcf2d9f9
cmake 3.14.0
powershell ab1effc926b000a6adc12198a1886514ec203621a53b0cd7ec1cd9a8225dccda7e857feaabcfba4004bea73129b986abaad777c4573f44e0af70411226ce08b0
vcpkg_fixup_cmake_targets dac334f3bf50b8262be92623168023aa565aa729
post_build_checks 2
triplet e8dc96fd479b53bb0e6748625827c8268017e35a
features core
